…
Рабочие часы мы определили в ходе прошлых практических работ:  
Учитывая нагрузку на трафик, рабочее время: 16:00-23:00

``` r
z2 <- data %>%
      select(timestamp, src, dst, bytes) %>%
      mutate(trafic = (str_detect(src, "^((12|13|14)\\.)") & !str_detect(dst, "^((12|13|14)\\.)")),time = hour(as_datetime(timestamp/1000))) %>%
      filter(trafic == TRUE, time >= 0 & time <= 24) %>% group_by(time) %>%
      summarise(trafictime = n()) %>% arrange(desc(trafictime))
z2 |> collect()
```

    # A tibble: 24 × 2
        time trafictime
       <int>      <int>
     1    16    4490576
     2    22    4489703
     3    18    4489386
     4    23    4488093
     5    19    4487345
     6    21    4487109
     7    17    4483578
     8    20    4482712
     9    13     169617
    10     7     169241
    # ℹ 14 more rows
…
